…
Unter den tokens (Vorkommnisse von Wortformen) sind auch Ziffern. Da sie im Text nicht wie Wörter geschrieben werden, zählen wir sie gewöhnlich nicht mit.

Wir könnten die Ziffern aus der Tabelle entfernen oder als unbestimmte Ziffernfolge (z.B. "0000") zusammenfassen.

Entfernen ist die einfachere Möglichkeit und oft auch die sinnvollere, wenn man davon ausgeht, dass die Zahlen keine wichtige Information zum Gesamtext beitragen. Wir erhalten 29 leere Zeilen.


```r
novels_ch %>% 
  mutate(word = str_remove_all(word, "[^a-zA-Z]")) %>% 
  count(word)
```

```
## # A tibble: 9,603 x 2
##    word              n
##    <chr>         <int>
##  1 ""               29
##  2 "a"              15
##  3 "ab"             60
##  4 "abbekommen"     10
##  5 "abbildung"      18
##  6 "abbrach"         7
##  7 "abend"          60
##  8 "abendessen"     20
##  9 "abendessens"    11
## 10 "abendgebet"     10
## # ... with 9,593 more rows
```
Ersetzen ist die andere Möglichkeit. 

Dazu verwenden wir einen *regulären Ausdruck*, nämlich *"[\\d]"*, in dem das "d" sich auf "digit" (Ziffer) bezieht. Die beiden Backslash-Zeichen vor dem "d" sagen dem Programm, dass nicht nach dem Buchstaben "d" gesucht wird, sondern nach Ziffern (digits). 

Als Ergebnis erhalten wir ein-, zwei- und vierstellige Zahlen in der Wortspalte. Die vierstelligen Zahlen stellen wahrscheinlich Jahreszahlen dar.


```r
novels_ch %>% 
  mutate(word = str_replace_all(word, "[\\d]", "0")) %>% 
  count(word)
```

```
## # A tibble: 9,641 x 2
##    word           n
##    <chr>      <int>
##  1 0              2
##  2 00            12
##  3 0000           4
##  4 a             11
##  5 ä             11
##  6 ab            60
##  7 abbekommen    10
##  8 abbildung     18
##  9 abbrach        7
## 10 abend         60
## # ... with 9,631 more rows
```
…
Zum Zählen einer Kategorie eignet sich die *tidyverse*-Funktion *count()*. 

Wie viele Äußerungen hat das Programm identifiziert? 

Hier müssen wir berücksichtigen, dass jede Äußerung in mehreren Zeilen wiederholt wird, da wir die Äußerungen auch in Wörter und Buchstaben zerlegt haben. Die Funktion *distinct()* berücksichtigt das.


```r
novels_ch %>% 
  distinct(sentence) %>% 
  count(sentence)
```

```
## # A tibble: 4,647 x 2
##    sentence                                                                    n
##    <chr>                                                                   <int>
##  1 '       Da hab ' ich ihm einen Stein ins Fenster geschmissen -- aber s~     1
##  2 '       Das heilt _jede_ Warze .                                            1
##  3 '       Und du sagst , so ganz beiläufig , als wenn's nichts wär ' , d~     1
##  4 '      Du sagtest das immer wieder .                                        1
##  5 '      Sagen -- was ?                                                       1
##  6 '      Und dann du raus mit den Pfeifen und wir ordentlich drauf los ,~     1
##  7 '      und dann trittst du langsam zurück , elf Schritt , mit geschlos~     1
##  8 '   Und ich sag ' : , O , 's ist schon recht , wenn er uns stark genug~     1
##  9 'n ganzes Jahr werd ' ich jede Nacht wachen !                               1
## 10 'ne Schande !                                                               1
## # ... with 4,637 more rows
```
…
Wenn wir distinct() weglassen, erhalten wir das folgende Ergebnis: Die Tabellenspalte "n" enthält nun unterschiedliche Zahlen, die sich auf die Anzahl der Buchstaben in der Spalte "sentence" bezieht, denn wir haben die Äußerungen vorher nicht nur in Wörter (Spalte "word") sondern auch in Buchstaben (Spalte "char") zerlegt.


```r
novels_ch %>% 
  count(sentence)
```

```
## # A tibble: 4,647 x 2
##    sentence                                                                    n
##    <chr>                                                                   <int>
##  1 '       Da hab ' ich ihm einen Stein ins Fenster geschmissen -- aber s~    61
##  2 '       Das heilt _jede_ Warze .                                           17
##  3 '       Und du sagst , so ganz beiläufig , als wenn's nichts wär ' , d~   115
##  4 '      Du sagtest das immer wieder .                                       23
##  5 '      Sagen -- was ?                                                       8
##  6 '      Und dann du raus mit den Pfeifen und wir ordentlich drauf los ,~    83
##  7 '      und dann trittst du langsam zurück , elf Schritt , mit geschlos~   131
##  8 '   Und ich sag ' : , O , 's ist schon recht , wenn er uns stark genug~    46
##  9 'n ganzes Jahr werd ' ich jede Nacht wachen !                              33
## 10 'ne Schande !                                                               9
## # ... with 4,637 more rows
```
…
<img src="11-Textzerlegung_files/figure-html/unnamed-chunk-20-1.svg" width="672" />

Welche Buchstaben kommen im Text häufiger / seltener vor?
Unter den auf Vokale bezogenen Buchstaben ist das "e" am häufigsten, unter den auf Konsonanten bezogenen das "n".


```r
alpha = 1
novels_ch %>% 
  filter(str_detect(char, "[:alpha:]")) %>% 
  count(char, sort = T)
```

```
## # A tibble: 31 x 2
##    char      n
##    <chr> <int>
##  1 e     53778
##  2 n     33906
##  3 i     24336
##  4 r     22040
##  5 s     20912
##  6 t     20295
##  7 a     18994
##  8 h     18505
##  9 d     16432
## 10 u     13668
## # ... with 21 more rows
```
…
Funktionswörter (z.B. und, die, nicht, sie, der, sich, er, ich, aber, ...) kommen wie in allen Texten am häufigsten vor. Für die Inhaltsanalyse spielen sie kaum oder gar keine Rolle. Daher werden sie oft entfernt.

Zu den Top-Ten gehört verständlicherweise auch der Name "Tom", da die Hauptperson im Roman fortwährend angesprochen oder erwähnt wird (die Gebrauchsfrequenz oder Anzahl der tokens n = 738).


```r
novels_ch %>% 
  distinct(word_id, .keep_all = TRUE) %>% 
  count(word, sort = TRUE)
```

```
## # A tibble: 9,639 x 2
##    word      n
##    <chr> <int>
##  1 und    2641
##  2 die    1417
##  3 er     1218
##  4 sie    1189
##  5 der    1178
##  6 zu      992
##  7 sich    824
##  8 nicht   802
##  9 ich     739
## 10 tom     738
## # ... with 9,629 more rows
```
…
```
## # A tibble: 9,639 x 6
##    word      n  rank     k zipfs_freq zipfs_freq_k
##    <chr> <int> <dbl> <dbl>      <dbl>        <dbl>
##  1 und    2641     1  2641      2641         2641 
##  2 die    1417     2  2834      1320.        1320.
##  3 er     1218     3  3654       880.         880.
##  4 sie    1189     4  4756       660.         660.
##  5 der    1178     5  5890       528.         528.
##  6 zu      992     6  5952       440.         440.
##  7 sich    824     7  5768       377.         377.
##  8 nicht   802     8  6416       330.         330.
##  9 ich     739     9  6651       293.         293.
## 10 tom     738    10  7380       264.         264.
## # ... with 9,629 more rows
```
…
```r
term_count <- tidy(corp_dfm) %>%
  group_by(document) %>%
  arrange(desc(count)) # sortieren !!!

term_count
```

```
## # A tibble: 9,837 x 3
## # Groups:   document [1]
##    document term  count
##    <chr>    <chr> <dbl>
##  1 text1    und    2641
##  2 text1    die    1414
##  3 text1    er     1210
##  4 text1    sie    1180
##  5 text1    der    1174
##  6 text1    zu      986
##  7 text1    sich    824
##  8 text1    nicht   786
##  9 text1    tom     739
## 10 text1    ich     730
## # ... with 9,827 more rows
```
…
