…
## Wortklassen zählen

Nun sind wir bereits in der Lage, Wortklassen zu zählen, die `udpipe` identifiziert hat. Dazu verwenden wir die Funktion `count()`. Gezählt werden die Kategorien in der Spalte *xpos*.


```r
kurz %>% 
  group_by(doc_id) %>% 
  count(xpos, sort = TRUE)
```

```
## # A tibble: 75 x 3
## # Groups:   doc_id [2]
##    doc_id              xpos      n
##    <chr>               <chr> <int>
##  1 morgner_duell       NN      318
##  2 morgner_duell       ART     185
##  3 morgner_duell       VVFIN   182
##  4 morgner_duell       PPER    121
##  5 borchert_kuechenuhr $.      120
##  6 borchert_kuechenuhr ADV     120
##  7 morgner_duell       $,      119
##  8 borchert_kuechenuhr VVFIN   118
##  9 borchert_kuechenuhr NN      117
## 10 morgner_duell       $.      112
## # ... with 65 more rows
```
…
