…
```
## `summarise()` has grouped output by 'doc_id'. You can override using the `.groups` argument.
```

```
## # A tibble: 28 x 4
## # Groups:   doc_id [2]
##    doc_id upos  lemmas prozent
##    <chr>  <chr>  <int>   <dbl>
##  1 tom_en NOUN    3245  0.403 
##  2 tom_de NOUN    3400  0.361 
##  3 tom_en VERB    1912  0.238 
##  4 tom_de VERB    1935  0.206 
##  5 tom_de ADJ     1875  0.199 
##  6 tom_en ADJ     1294  0.161 
##  7 tom_de PROPN    967  0.103 
##  8 tom_en ADV      627  0.0779
##  9 tom_de ADV      672  0.0714
## 10 tom_en PROPN    389  0.0483
## # ... with 18 more rows
```
…
Ta rezultat nakazuje, so čustvene vrednosti v nemškem prevodu nekoliko skrajnejše (pozitivne ali negativne) kot v angleškem izvirniku. Zanimivo bi bilo vprašati poznavalca angleškega izvirnika in nemškega prevoda, ali je ob slogovni primerjavi dobil podoben vtis. 

Poglejmo še nekaj povedi, ki so bile ocenjene negativno:


```r
sentiment1 %>% 
  filter(negative > 0)
```

```
## # A tibble: 2,157 x 8
## # Groups:   doc_id [2]
##    doc_id     sentence words values text               positive neutral negative
##    <chr>         <int> <dbl>  <dbl> <chr>                 <dbl>   <dbl>    <dbl>
##  1 tom_de.txt        3    42     -2 "Huck Finn ist na~        0       0        2
##  2 tom_de.txt       15    81     -2 "Unruhig hielt si~        0       0        2
##  3 tom_de.txt       16     8     -1 "Sie hatte nichts~        0       0        1
##  4 tom_de.txt       17    12     -1 ", ,So ein Junge ~        0       0        1
##  5 tom_de.txt       25     5     -1 "\"      , ,Nicht~        0       0        1
##  6 tom_de.txt       26     5     -1 "\"      , ,Nicht~        0       0        1
##  7 tom_de.txt       34     5     -3 "Die Gefahr war d~        0       0        3
##  8 tom_de.txt       38     8     -1 ", ,Der Kuckuck h~        0       0        1
##  9 tom_de.txt       41    18     -2 "Aber alte Torhei~        0       0        2
## 10 tom_de.txt       47    11     -1 "Er steckt voller~        0       0        1
## # ... with 2,147 more rows
```
…
