…
```r
avatar_words_udpiped %>% 
  group_by(language) %>% 
  count(dep_rel, sort = TRUE) %>% 
  mutate(pct = round(100*n/sum(n),2)) %>% 
  pivot_wider(names_from = language, values_from = c(n, pct)) %>% 
  mutate(across(everything(), ~ replace_na(.x, 0))) %>% 
  mutate(dep_rel = 
           str_replace(dep_rel, "0", "Unknown"))
```

```
## # A tibble: 43 x 7
##    dep_rel n_deu n_eng n_slv pct_deu pct_eng pct_slv
##    <chr>   <dbl> <dbl> <dbl>   <dbl>   <dbl>   <dbl>
##  1 root     2366  2026  1807   26.6    20.7    30.2 
##  2 nsubj    1263  1254   378   14.2    12.8     6.32
##  3 advmod   1001   670   689   11.2     6.85   11.5 
##  4 det       781   666   168    8.78    6.81    2.81
##  5 obj       637   701   438    7.16    7.17    7.32
##  6 case      468   602   395    5.26    6.16    6.61
##  7 aux       256   442   327    2.88    4.52    5.47
##  8 cop       311   369   177    3.49    3.77    2.96
##  9 obl       246   315   256    2.76    3.22    4.28
## 10 mark      156   289   154    1.75    2.96    2.58
## # ... with 33 more rows
```
…
