…
## Who wrote about


```r
tweets_afghanistan %>% 
  filter(str_detect(screen_name, "spiegel"))
```

```
## # A tibble: 50 x 90
##    user_id status_id           created_at          screen_name text       source
##    <chr>   <chr>               <dttm>              <chr>       <chr>      <chr> 
##  1 2834511 1432320891380174850 2021-08-30 12:34:46 derspiegel  "Die Mita~ Tweet~
##  2 2834511 1432588199164059648 2021-08-31 06:16:57 derspiegel  "Um kurz ~ Tweet~
##  3 2834511 1431985249659936774 2021-08-29 14:21:03 derspiegel  "Saad Moh~ dlvr.~
##  4 2834511 1432795329267707906 2021-08-31 20:00:01 derspiegel  "Nach dem~ Tweet~
##  5 2834511 1432649500972093440 2021-08-31 10:20:33 derspiegel  "Sebastia~ dlvr.~
##  6 2834511 1432300816803590145 2021-08-30 11:15:00 derspiegel  "Die US-S~ Tweet~
##  7 2834511 1432935850015399937 2021-09-01 05:18:23 derspiegel  "Zum Ende~ Tweet~
##  8 2834511 1432609282567061511 2021-08-31 07:40:44 derspiegel  "Nach dem~ Tweet~
##  9 2834511 1432327492803735557 2021-08-30 13:01:00 derspiegel  "Die Gefä~ Tweet~
## 10 2834511 1432803515676585984 2021-08-31 20:32:32 derspiegel  "In einer~ dlvr.~
## # ... with 40 more rows, and 84 more variables: display_text_width <dbl>,
## #   reply_to_status_id <chr>, reply_to_user_id <chr>,
## #   reply_to_screen_name <chr>, is_quote <lgl>, is_retweet <lgl>,
## #   favorite_count <int>, retweet_count <int>, quote_count <int>,
## #   reply_count <int>, hashtags <list>, symbols <list>, urls_url <list>,
## #   urls_t.co <list>, urls_expanded_url <list>, media_url <list>,
## #   media_t.co <list>, media_expanded_url <list>, media_type <list>, ...
```
…
