Kapitel 8 Regularni izrazi in quanteda | RAJ 2022 Introduction Course
…
Konkordanco bomo pretvorili v podatkovno zbirko, tj. data.frame ali tibble(). Prednost je npr., da tako pridobimo imena stolpcev (tj. spremenljivk).

kwic() ima več možnosti, npr. “case_insensitive = FALSE” razlikuje med velikimi in malimi črkami. Privzeta vrednost je “TRUE,” tj. da tega ne razlikuje (tako kot Excel).

(konkordanca = kwic(woerter, pattern = c("Frau", "Herr"), case_insensitive = FALSE) %>% 
  as_tibble()
)

## # A tibble: 226 x 7
##    docname      from    to pre                keyword post               pattern
##    <chr>       <int> <int> <chr>              <chr>   <chr>              <fct>  
##  1 prozess.txt    23    23 1 Verhaftung , Ge~ Frau    Grubach , dann Fr~ Frau   
##  2 prozess.txt    55    55 verhaftet . Die K~ Frau    Grubach , seiner ~ Frau   
##  3 prozess.txt    97    97 seinem Kopfkissen~ Frau    , die ihm gegenüb~ Frau   
##  4 prozess.txt   417   417 im Nebenzimmer si~ Frau    Grubach diese Stö~ Frau   
##  5 prozess.txt   552   552 Es war das Wohnzi~ Frau    Grubach , viellei~ Frau   
##  6 prozess.txt   675   675 erblickte man wie~ Frau    , die mit wahrhaf~ Frau   
##  7 prozess.txt   701   701 . » Ich will doch  Frau    Grubach - « , sag~ Frau   
##  8 prozess.txt  1648  1648 gerade die gegenü~ Frau    Grubach wollte do~ Frau   
##  9 prozess.txt  2423  2423 drüben sah er die~ Frau    , die einen noch ~ Frau   
## 10 prozess.txt  2869  2869 war , so konnte er Frau    Grubach als Zeugi~ Frau   
## # ... with 216 more rows
…
## # A tibble: 2 x 2
##   keyword     n
##   <chr>   <int>
## 1 Frau      132
## 2 Herr       94

8.5.2 Pripona -in

Poiskati želimo besede s pripono “-in” za samostalnike, ki označujejo ženska osebna imena (npr. Ärztin, Köchin, …).

(konkordanca2 <- kwic(woerter, pattern = c("*in"), case_insensitive = FALSE) %>% 
  as_tibble()
)

## # A tibble: 4,100 x 7
##    docname      from    to pre                           keyword  post   pattern
##    <chr>       <int> <int> <chr>                         <chr>    <chr>  <fct>  
##  1 prozess.txt    27    27 mit Frau Grubach , dann       Fräulein Brüst~ *in    
##  2 prozess.txt    53    53 eines Morgens verhaftet . Die Köchin   der F~ *in    
##  3 prozess.txt    59    59 der Frau Grubach , seiner     Zimmerv~ , die~ *in    
##  4 prozess.txt    87    87 . K . wartete noch            ein      Weilc~ *in    
##  5 prozess.txt   130   130 . Sofort klopfte es und       ein      Mann ~ *in    
##  6 prozess.txt   135   135 ein Mann , den er             in       diese~ *in    
##  7 prozess.txt   144   144 niemals gesehen hatte , trat  ein      . Er ~ *in    
##  8 prozess.txt   156   156 fest gebaut , er trug         ein      anlie~ *in    
##  9 prozess.txt   293   293 zur Tür , die er              ein      wenig~ *in    
## 10 prozess.txt   323   323 das Frühstück bringt . «      Ein      klein~ *in    
## # ... with 4,090 more rows
…
                      valuetype = "regex", case_insensitive = FALSE)) %>% 
    filter(keyword != "Immerhin", 
         keyword != "Darin",
         keyword != "Termin",
         keyword != "Worin",
         keyword != "Robin",
         keyword != "Medizin",
         keyword != "Disziplin",
         keyword != "Austin",
         keyword != "Musselin",
         keyword != "Benjamin",
         keyword != "Franklin")
)

## # A tibble: 46 x 7
##    docname      from    to pre                             keyword post  pattern
##    <chr>       <int> <int> <chr>                           <chr>   <chr> <fct>  
##  1 prozess.txt    53    53 eines Morgens verhaftet . Die   Köchin  der ~ "\\b[A~
##  2 prozess.txt    59    59 der Frau Grubach , seiner       Zimmer~ , di~ "\\b[A~
##  3 prozess.txt  2872  2872 konnte er Frau Grubach als      Zeugin  führ~ "\\b[A~
##  4 prozess.txt  3590  3590 einem Fräulein Bürstner , einer Schrei~ , be~ "\\b[A~
##  5 prozess.txt  6475  6475 in den späten Morgen als        Kellne~ in e~ "\\b[A~
##  6 prozess.txt  7349  7349 ich bin ja bloß die             Vermie~ . Nu~ "\\b[A~
##  7 prozess.txt 15556 15556 Saalende öffnete , die junge    Wäsche~ , di~ "\\b[A~
##  8 prozess.txt 16522 16522 sollten , ebenso wie meine      Vermie~ und ~ "\\b[A~
##  9 prozess.txt 16561 16561 , gelungen , selbst meine       Vermie~ , ei~ "\\b[A~
## 10 prozess.txt 28090 28090 diesen verwenden . 4 Die        Freund~ des ~ "\\b[A~
## # ... with 36 more rows
…
Glede na to, da se pripona -er uporablja v mnoge druge namene, bo najbolje, če
- najprej odstranimo funkcijske in druge pogoste besede (seznam stopwords)
- in šele potem poizvedujemo s funkcijo kwic()

wortformen = tokens_select(woerter, pattern = c(stopwords("de"), "bisher","immer"), 
                           selection = "remove")

Približno 500 besednih oblik manj, kot če ne bi izločili “stopwords.”

(nomen_er = as_tibble(kwic(wortformen, pattern = "\\b[A-Z].+er\\b",
                      valuetype = "regex", case_insensitive = FALSE))
)

## # A tibble: 2,270 x 7
##    docname      from    to pre               keyword   post            pattern  
##    <chr>       <int> <int> <chr>             <chr>     <chr>           <fct>    
##  1 prozess.txt    24    24 Gespräch Frau Gr~ Brüstner  Jemand mußte J~ "\\b[A-Z~
##  2 prozess.txt   208   208 Frühstück bringt~ Gelächter Nebenzimmer fo~ "\\b[A-Z~
##  3 prozess.txt   209   209 bringt . « klein~ Nebenzim~ folgte , Klang~ "\\b[A-Z~
##  4 prozess.txt   261   261 . » sehen , Leute Nebenzim~ Frau Grubach S~ "\\b[A-Z~
##  5 prozess.txt   317   317 Fremde öffnete f~ Nebenzim~ , K . langsame~ "\\b[A-Z~
##  6 prozess.txt   333   333 fast genau Abend~ Wohnzimm~ Frau Grubach ,~ "\\b[A-Z~
##  7 prozess.txt   345   345 Decken , Porzell~ Zimmer    heute wenig me~ "\\b[A-Z~
##  8 prozess.txt   363   363 Mannes bestand ,~ Fenster   Buch saß , auf~ "\\b[A-Z~
##  9 prozess.txt   371   371 , aufblickte , »~ Zimmer    bleiben sollen~ "\\b[A-Z~
## 10 prozess.txt   399   399 stehengeblieben ~ Fenster   erblickte alte~ "\\b[A-Z~
## # ... with 2,260 more rows

462 je besednih oblik, ki se konča na -er, vendar med njimi niso samo samostalniki, ki bi se nanašali na osebe moškega spola.

nomen_er %>% 
  count(keyword, sort = T)

## # A tibble: 462 x 2
##    keyword                  n
##    <chr>                <int>
##  1 Maler                  118
##  2 Zimmer                 107
##  3 Fenster                 75
##  4 Richter                 73
##  5 Bürstner                61
##  6 Türhüter                57
##  7 Wächter                 54
##  8 Untersuchungsrichter    48
##  9 Wasser                  44
## 10 Potter                  40
## # ... with 452 more rows

Še vedno je potrebno posamično filtriranje: bodisi zaradi pomena bodisi zaradi besedotvornega vzorca. Zaradi prej izločenih nezaželenih besed (stopwords) je filtrirni seznam nekoliko krajši.

(nomina_er = nomen_er %>%
  filter(!str_detect(keyword, 
                     c("[Z|z]immer|[P|p]apier|[F|f]inger|[W|w]asser|[H|h]äuser|[B|b]ücher|spritzer|[G|g]itter|[K|k]ammer|[W|w]etter")),
         !keyword %in% c("Kinder","Messer","Blätter","Kleider","Bilder","Nummer","Koffer","Fenster",
                         "Feuer","Körper","Gesichter","Kummer","Abenteuer","Schulter","Tier",
                         "Theater","Fehler","Gelächter","Mutter","Seufzer","Vater","Wunder","Atelier",
                         "Geister","Mauer","Ufer","Bruder","Hunger","Lichter","Eimer","Lager",
                         "Meter","Trauer","Polster","Manier"))
)

## # A tibble: 1,461 x 7
##    docname      from    to pre              keyword  post             pattern   
##    <chr>       <int> <int> <chr>            <chr>    <chr>            <fct>     
##  1 prozess.txt    24    24 Gespräch Frau G~ Brüstner Jemand mußte Jo~ "\\b[A-Z]~
##  2 prozess.txt   508   508 freundlich . we~ Wächter  , zuversichtlic~ "\\b[A-Z]~
##  3 prozess.txt   672   672 zweiten Wächter~ Wächter  - förmlich freu~ "\\b[A-Z]~
##  4 prozess.txt   695   695 seitlich gedreh~ Wächter  verständigte . ~ "\\b[A-Z]~
##  5 prozess.txt   782   782 lachen , mitlac~ Dienstm~ Straßenecke , s~ "\\b[A-Z]~
##  6 prozess.txt   976   976 öffnete , wurde~ Wächter  aufgeschreckt ,~ "\\b[A-Z]~
##  7 prozess.txt  1004  1004 darf « , sagte ~ Wächter  . » verhaftet .~ "\\b[A-Z]~
##  8 prozess.txt  1022  1022 » fangen « , sa~ Wächter  tauchte Butterb~ "\\b[A-Z]~
##  9 prozess.txt  1054  1054 lieber Himmel !~ Wächter  . » Lage fügen ~ "\\b[A-Z]~
## 10 prozess.txt  1124  1124 ? « rief schon ~ Wächter  . » führen ärge~ "\\b[A-Z]~
## # ... with 1,451 more rows

nomina_er %>% 
  group_by(docname) %>% 
  count(keyword, sort = T)

## # A tibble: 398 x 3
## # Groups:   docname [2]
##    docname     keyword                  n
##    <chr>       <chr>                <int>
##  1 prozess.txt Maler                  118
##  2 prozess.txt Bürstner                61
##  3 prozess.txt Türhüter                57
##  4 prozess.txt Richter                 50
##  5 prozess.txt Untersuchungsrichter    48
##  6 prozess.txt Wächter                 48
##  7 tom.txt     Potter                  40
##  8 prozess.txt Gerichtsdiener          38
##  9 prozess.txt Diener                  36
## 10 tom.txt     Thatcher                36
## # ... with 388 more rows

Za grafični prikaz obdržimo samo po 20 najpogostnejših izrazov iz vsakega besedila.

nomina_er %>% 
  group_by(docname) %>% 
  count(keyword, sort = T) %>% 
  slice_head(n=20)

## # A tibble: 40 x 3
## # Groups:   docname [2]
##    docname     keyword                     n
##    <chr>       <chr>                   <int>
##  1 prozess.txt Maler                     118
##  2 prozess.txt Bürstner                   61
##  3 prozess.txt Türhüter                   57
##  4 prozess.txt Richter                    50
##  5 prozess.txt Untersuchungsrichter       48
##  6 prozess.txt Wächter                    48
##  7 prozess.txt Gerichtsdiener             38
##  8 prozess.txt Diener                     36
##  9 prozess.txt Aufseher                   35
## 10 prozess.txt Direktor-Stellvertreter    35
## # ... with 30 more rows
…
8.5.4 Pripona -ung

(nomen_ung = as_tibble(kwic(woerter, pattern = "\\b[A-Z].+ung\\b",
                      valuetype = "regex", case_insensitive = FALSE))
)

## # A tibble: 1,025 x 7
##    docname      from    to pre                        keyword  post     pattern 
##    <chr>       <int> <int> <chr>                      <chr>    <chr>    <fct>   
##  1 prozess.txt    19    19 Der Prozess Franz Kafka 1  Verhaft~ , Gespr~ "\\b[A-~
##  2 prozess.txt   137   137 , den er in dieser         Wohnung  noch ni~ "\\b[A-~
##  3 prozess.txt   231   231 , als müsse man seine      Erschei~ hinnehm~ "\\b[A-~
##  4 prozess.txt   374   374 K . im Tone einer          Meldung  : » Es ~ "\\b[A-~
##  5 prozess.txt   420   420 und wie Frau Grubach diese Störung  mir geg~ "\\b[A-~
##  6 prozess.txt   589   589 so weniger , als die       Hauptve~ in der ~ "\\b[A-~
##  7 prozess.txt   712   712 K . , machte eine          Bewegung , als r~ "\\b[A-~
##  8 prozess.txt   873   873 Glück haben wie bei der    Bestimm~ Ihrer W~ "\\b[A-~
##  9 prozess.txt  1091  1091 , sondern die Höhe der     Bestech~ , und w~ "\\b[A-~
## 10 prozess.txt  1265  1265 wagte , ihn in seiner      Wohnung  zu über~ "\\b[A-~
## # ... with 1,015 more rows
…
Najpogostnejši samostalniki s pripono -ung odražajo osrednjo tematiko obeh besedil. V romanu Prozess se pogosteje pojavljajo samostalniki s pripono -ung, ki spadajo v pomensko polje “(kriminalno) pravo,” v romanu Tom Sawyer pa je na vrhu lestvice več takih samostalnikov, ki se nanašajo na geografski prostor in razpoloženje.

library(tidytext)
(nomina_ung = nomen_ung %>% 
  group_by(docname) %>% 
  count(keyword, sort = T) %>% 
  slice_head(n=20) %>% 
  mutate(keyword = reorder_within(keyword, n, n, sep = ": "))
)

## # A tibble: 40 x 3
## # Groups:   docname [2]
##    docname     keyword               n
##    <chr>       <fct>             <int>
##  1 prozess.txt Verteidigung: 26     26
##  2 prozess.txt Meinung: 21          21
##  3 prozess.txt Bemerkung: 19        19
##  4 prozess.txt Erklärung: 19        19
##  5 prozess.txt Verhaftung: 18       18
##  6 prozess.txt Stellung: 17         17
##  7 prozess.txt Wohnung: 17          17
##  8 prozess.txt Freisprechung: 15    15
##  9 prozess.txt Bedeutung: 14        14
## 10 prozess.txt Verbindung: 14       14
## # ... with 30 more rows
…
