Kapitel 6 Spracherwerbsdaten | Computergestützte Text- und Korpusanalyse mit R
…
6.6 3. Welche Form als erste?

Zur Beantwortung dieser Frage filtern wir zuerst die Spalten id und code. Dann sortieren wir die jeweilige Tabellen für das ausgewählte Kind nach Alter age. Mit der Funktion pivot_longer() bilden wir eine lange Tabellenform.

szagun %>% 
  filter(id == "Rahel",
         code == "CHI") %>% 
  group_by(age) %>% 
  pivot_longer(das:die, names_to = "d_wort", values_to = "freq") %>% 
  filter(freq > 0)

## # A tibble: 92 x 10
## # Groups:   age [22]
##    id    age1  code  age     utterances types token   ttr d_wort  freq
##    <chr> <chr> <chr> <chr>        <dbl> <dbl> <dbl> <dbl> <chr>  <dbl>
##  1 Rahel 10400 CHI   1;04.00        428     1     4 0.25  die        4
##  2 Rahel 10507 CHI   1;05.07        630     3     4 0.75  das        1
##  3 Rahel 10507 CHI   1;05.07        630     3     4 0.75  der        1
##  4 Rahel 10507 CHI   1;05.07        630     3     4 0.75  des        2
##  5 Rahel 10614 CHI   1;06.14        632     2    16 0.125 das        1
##  6 Rahel 10614 CHI   1;06.14        632     2    16 0.125 die       15
##  7 Rahel 10800 CHI   1;08.00        909     3    11 0.273 das        8
##  8 Rahel 10800 CHI   1;08.00        909     3    11 0.273 des        1
##  9 Rahel 10800 CHI   1;08.00        909     3    11 0.273 die        2
## 10 Rahel 10907 CHI   1;09.07        424     3     6 0.5   das        4
## # ... with 82 more rows

szagun %>% 
  filter(id == "Anna",
         code == "CHI") %>% 
  group_by(age) %>% 
  pivot_longer(das:die, names_to = "d_wort", values_to = "freq") %>% 
  filter(freq > 0)

## # A tibble: 116 x 10
## # Groups:   age [22]
##    id    age1  code  age     utterances types token   ttr d_wort  freq
##    <chr> <chr> <chr> <chr>        <dbl> <dbl> <dbl> <dbl> <chr>  <dbl>
##  1 Anna  10400 CHI   1;04.00        230     2    12 0.167 das        1
##  2 Anna  10400 CHI   1;04.00        230     2    12 0.167 die       11
##  3 Anna  10507 CHI   1;05.07        633     4    23 0.174 das        7
##  4 Anna  10507 CHI   1;05.07        633     4    23 0.174 den        1
##  5 Anna  10507 CHI   1;05.07        633     4    23 0.174 des        5
##  6 Anna  10507 CHI   1;05.07        633     4    23 0.174 die       10
##  7 Anna  10614 CHI   1;06.14        845     4    76 0.053 das       68
##  8 Anna  10614 CHI   1;06.14        845     4    76 0.053 der        1
##  9 Anna  10614 CHI   1;06.14        845     4    76 0.053 des        1
## 10 Anna  10614 CHI   1;06.14        845     4    76 0.053 die        6
## # ... with 106 more rows

szagun %>% 
  filter(id == "Emely",
         code == "CHI") %>% 
  group_by(age) %>% 
  pivot_longer(das:die, names_to = "d_wort", values_to = "freq") %>% 
  filter(freq > 0)

## # A tibble: 78 x 10
## # Groups:   age [21]
##    id    age1  code  age     utterances types token   ttr d_wort  freq
##    <chr> <chr> <chr> <chr>        <dbl> <dbl> <dbl> <dbl> <chr>  <dbl>
##  1 Emely 10407 CHI   1;04.07        374     1     1 1     des        1
##  2 Emely 10507 CHI   1;05.07        235     2     2 1     das        1
##  3 Emely 10507 CHI   1;05.07        235     2     2 1     des        1
##  4 Emely 10813 CHI   1;08.13        321     2     2 1     das        1
##  5 Emely 10813 CHI   1;08.13        321     2     2 1     des        1
##  6 Emely 10907 CHI   1;09.07        720     3    40 0.075 der        3
##  7 Emely 10907 CHI   1;09.07        720     3    40 0.075 des        1
##  8 Emely 10907 CHI   1;09.07        720     3    40 0.075 die       36
##  9 Emely 11014 CHI   1;10.14        875     4    76 0.053 das        1
## 10 Emely 11014 CHI   1;10.14        875     4    76 0.053 der        1
## # ... with 68 more rows

szagun %>% 
  filter(id == "Falko",
         code == "CHI") %>% 
  group_by(age) %>% 
  pivot_longer(das:die, names_to = "d_wort", values_to = "freq") %>% 
  filter(freq > 0)

## # A tibble: 93 x 10
## # Groups:   age [19]
##    id    age1  code  age     utterances types token   ttr d_wort  freq
##    <chr> <chr> <chr> <chr>        <dbl> <dbl> <dbl> <dbl> <chr>  <dbl>
##  1 Falko 10800 CHI   1;08.00        311     1     2 0.5   die        2
##  2 Falko 10907 CHI   1;09.07        238     2     3 0.667 das        1
##  3 Falko 10907 CHI   1;09.07        238     2     3 0.667 den        2
##  4 Falko 11014 CHI   1;10.14        378     2    28 0.071 das       27
##  5 Falko 11014 CHI   1;10.14        378     2    28 0.071 der        1
##  6 Falko 20000 CHI   2;00.00        817     6    55 0.109 das       37
##  7 Falko 20000 CHI   2;00.00        817     6    55 0.109 dem        1
##  8 Falko 20000 CHI   2;00.00        817     6    55 0.109 den        7
##  9 Falko 20000 CHI   2;00.00        817     6    55 0.109 der        4
## 10 Falko 20000 CHI   2;00.00        817     6    55 0.109 des        1
## # ... with 83 more rows

szagun %>% 
  filter(id == "Lisa",
         code == "CHI") %>% 
  group_by(age) %>% 
  pivot_longer(das:die, names_to = "d_wort", values_to = "freq") %>% 
  filter(freq > 0)

## # A tibble: 94 x 10
## # Groups:   age [21]
##    id    age1  code  age     utterances types token   ttr d_wort  freq
##    <chr> <chr> <chr> <chr>        <dbl> <dbl> <dbl> <dbl> <chr>  <dbl>
##  1 Lisa  10507 CHI   1;05.07        694     2     3 0.667 das        1
##  2 Lisa  10507 CHI   1;05.07        694     2     3 0.667 die        2
##  3 Lisa  10614 CHI   1;06.14        555     2    24 0.083 den        1
##  4 Lisa  10614 CHI   1;06.14        555     2    24 0.083 die       23
##  5 Lisa  10800 CHI   1;08.00        410     3    11 0.273 den        3
##  6 Lisa  10800 CHI   1;08.00        410     3    11 0.273 der        3
##  7 Lisa  10800 CHI   1;08.00        410     3    11 0.273 die        5
##  8 Lisa  10907 CHI   1;09.07        580     4    20 0.2   das        2
##  9 Lisa  10907 CHI   1;09.07        580     4    20 0.2   den        3
## 10 Lisa  10907 CHI   1;09.07        580     4    20 0.2   der        5
## # ... with 84 more rows

szagun %>% 
  filter(id == "Soeren",
         code == "CHI") %>% 
  group_by(age) %>% 
  pivot_longer(das:die, names_to = "d_wort", values_to = "freq") %>% 
  filter(freq > 0)

## # A tibble: 95 x 10
## # Groups:   age [22]
##    id     age1  code  age     utterances types token   ttr d_wort  freq
##    <chr>  <chr> <chr> <chr>        <dbl> <dbl> <dbl> <dbl> <chr>  <dbl>
##  1 Soeren 10400 CHI   1;04.00        487     1     1 1     das        1
##  2 Soeren 10507 CHI   1;05.07        663     2    21 0.095 das       19
##  3 Soeren 10507 CHI   1;05.07        663     2    21 0.095 der        2
##  4 Soeren 10614 CHI   1;06.14        765     4    68 0.059 das       23
##  5 Soeren 10614 CHI   1;06.14        765     4    68 0.059 den       39
##  6 Soeren 10614 CHI   1;06.14        765     4    68 0.059 der        1
##  7 Soeren 10614 CHI   1;06.14        765     4    68 0.059 die        5
##  8 Soeren 10800 CHI   1;08.00        753     5    84 0.06  das       42
##  9 Soeren 10800 CHI   1;08.00        753     5    84 0.06  dem        1
## 10 Soeren 10800 CHI   1;08.00        753     5    84 0.06  den       35
## # ... with 85 more rows

6.7 4. Wann alle d-Formen vertreten?

Die Vorgangsweise ist fast dieselbe wie bei der vorherigen Frage, aber wir filtern dieses Mal zusätzlich die Anzahl der types.

szagun %>% 
  filter(id == "Rahel",
         code == "CHI") %>% 
  group_by(age) %>% 
  pivot_longer(das:die, names_to = "d_wort", values_to = "freq") %>% 
  filter(types >= 5)

## # A tibble: 66 x 10
## # Groups:   age [11]
##    id    age1  code  age     utterances types token   ttr d_wort  freq
##    <chr> <chr> <chr> <chr>        <dbl> <dbl> <dbl> <dbl> <chr>  <dbl>
##  1 Rahel 20107 CHI   2;01.07        556     5    25 0.2   das       18
##  2 Rahel 20107 CHI   2;01.07        556     5    25 0.2   dem        0
##  3 Rahel 20107 CHI   2;01.07        556     5    25 0.2   den        1
##  4 Rahel 20107 CHI   2;01.07        556     5    25 0.2   der        1
##  5 Rahel 20107 CHI   2;01.07        556     5    25 0.2   des        3
##  6 Rahel 20107 CHI   2;01.07        556     5    25 0.2   die        2
##  7 Rahel 20400 CHI   2;04.00       1115     5   122 0.041 das      100
##  8 Rahel 20400 CHI   2;04.00       1115     5   122 0.041 dem        0
##  9 Rahel 20400 CHI   2;04.00       1115     5   122 0.041 den        2
## 10 Rahel 20400 CHI   2;04.00       1115     5   122 0.041 der        5
## # ... with 56 more rows
…
szagun %>% 
  filter(id == "Anna",
         code == "CHI") %>% 
  group_by(age) %>% 
  pivot_longer(das:die, names_to = "d_wort", values_to = "freq") %>% 
  filter(types >= 5)

## # A tibble: 114 x 10
## # Groups:   age [19]
##    id    age1  code  age     utterances types token   ttr d_wort  freq
##    <chr> <chr> <chr> <chr>        <dbl> <dbl> <dbl> <dbl> <chr>  <dbl>
##  1 Anna  10800 CHI   1;08.00       1247     5    87 0.057 das       66
##  2 Anna  10800 CHI   1;08.00       1247     5    87 0.057 dem        0
##  3 Anna  10800 CHI   1;08.00       1247     5    87 0.057 den        5
##  4 Anna  10800 CHI   1;08.00       1247     5    87 0.057 der        1
##  5 Anna  10800 CHI   1;08.00       1247     5    87 0.057 des        2
##  6 Anna  10800 CHI   1;08.00       1247     5    87 0.057 die       13
##  7 Anna  10907 CHI   1;09.07       1076     5   149 0.034 das      127
##  8 Anna  10907 CHI   1;09.07       1076     5   149 0.034 dem        0
##  9 Anna  10907 CHI   1;09.07       1076     5   149 0.034 den        5
## 10 Anna  10907 CHI   1;09.07       1076     5   149 0.034 der        7
## # ... with 104 more rows

szagun %>% 
  filter(id == "Anna",
         code == "CHI") %>% 
  group_by(age) %>% 
  pivot_longer(das:die, names_to = "d_wort", values_to = "freq") %>% 
  filter(types == 6)

## # A tibble: 66 x 10
## # Groups:   age [11]
##    id    age1  code  age     utterances types token   ttr d_wort  freq
##    <chr> <chr> <chr> <chr>        <dbl> <dbl> <dbl> <dbl> <chr>  <dbl>
##  1 Anna  20000 CHI   2;00.00        957     6   226 0.027 das       93
##  2 Anna  20000 CHI   2;00.00        957     6   226 0.027 dem        1
##  3 Anna  20000 CHI   2;00.00        957     6   226 0.027 den        4
##  4 Anna  20000 CHI   2;00.00        957     6   226 0.027 der       32
##  5 Anna  20000 CHI   2;00.00        957     6   226 0.027 des        9
##  6 Anna  20000 CHI   2;00.00        957     6   226 0.027 die       87
##  7 Anna  20214 CHI   2;02.14        929     6   251 0.024 das       55
##  8 Anna  20214 CHI   2;02.14        929     6   251 0.024 dem        3
##  9 Anna  20214 CHI   2;02.14        929     6   251 0.024 den       14
## 10 Anna  20214 CHI   2;02.14        929     6   251 0.024 der       57
## # ... with 56 more rows

szagun %>% 
  filter(id == "Emely",
         code == "CHI") %>% 
  group_by(age) %>% 
  pivot_longer(das:die, names_to = "d_wort", values_to = "freq") %>% 
  filter(types >= 5)

## # A tibble: 54 x 10
## # Groups:   age [9]
##    id    age1  code  age     utterances types token   ttr d_wort  freq
##    <chr> <chr> <chr> <chr>        <dbl> <dbl> <dbl> <dbl> <chr>  <dbl>
##  1 Emely 20907 CHI   2;09.07       1103     5   161 0.031 das      107
##  2 Emely 20907 CHI   2;09.07       1103     5   161 0.031 dem        0
##  3 Emely 20907 CHI   2;09.07       1103     5   161 0.031 den        4
##  4 Emely 20907 CHI   2;09.07       1103     5   161 0.031 der       28
##  5 Emely 20907 CHI   2;09.07       1103     5   161 0.031 des        3
##  6 Emely 20907 CHI   2;09.07       1103     5   161 0.031 die       19
##  7 Emely 21014 CHI   2;10.14       1004     5   217 0.023 das      141
##  8 Emely 21014 CHI   2;10.14       1004     5   217 0.023 dem        0
##  9 Emely 21014 CHI   2;10.14       1004     5   217 0.023 den        7
## 10 Emely 21014 CHI   2;10.14       1004     5   217 0.023 der       28
## # ... with 44 more rows
…
## # A tibble: 0 x 10
## # Groups:   age [0]
## # ... with 10 variables: id <chr>, age1 <chr>, code <chr>, age <chr>,
## #   utterances <dbl>, types <dbl>, token <dbl>, ttr <dbl>, d_wort <chr>,
## #   freq <dbl>

szagun %>% 
  filter(id == "Falko",
         code == "CHI") %>% 
  group_by(age) %>% 
  pivot_longer(das:die, names_to = "d_wort", values_to = "freq") %>% 
  filter(types >= 5)

## # A tibble: 90 x 10
## # Groups:   age [15]
##    id    age1  code  age     utterances types token   ttr d_wort  freq
##    <chr> <chr> <chr> <chr>        <dbl> <dbl> <dbl> <dbl> <chr>  <dbl>
##  1 Falko 20000 CHI   2;00.00        817     6    55 0.109 das       37
##  2 Falko 20000 CHI   2;00.00        817     6    55 0.109 dem        1
##  3 Falko 20000 CHI   2;00.00        817     6    55 0.109 den        7
##  4 Falko 20000 CHI   2;00.00        817     6    55 0.109 der        4
##  5 Falko 20000 CHI   2;00.00        817     6    55 0.109 des        1
##  6 Falko 20000 CHI   2;00.00        817     6    55 0.109 die        5
##  7 Falko 20107 CHI   2;01.07        734     5   251 0.02  das      195
##  8 Falko 20107 CHI   2;01.07        734     5   251 0.02  dem        0
##  9 Falko 20107 CHI   2;01.07        734     5   251 0.02  den        5
## 10 Falko 20107 CHI   2;01.07        734     5   251 0.02  der        6
## # ... with 80 more rows

szagun %>% 
  filter(id == "Falko",
         code == "CHI") %>% 
  group_by(age) %>% 
  pivot_longer(das:die, names_to = "d_wort", values_to = "freq") %>% 
  filter(types == 6)

## # A tibble: 54 x 10
## # Groups:   age [9]
##    id    age1  code  age     utterances types token   ttr d_wort  freq
##    <chr> <chr> <chr> <chr>        <dbl> <dbl> <dbl> <dbl> <chr>  <dbl>
##  1 Falko 20000 CHI   2;00.00        817     6    55 0.109 das       37
##  2 Falko 20000 CHI   2;00.00        817     6    55 0.109 dem        1
##  3 Falko 20000 CHI   2;00.00        817     6    55 0.109 den        7
##  4 Falko 20000 CHI   2;00.00        817     6    55 0.109 der        4
##  5 Falko 20000 CHI   2;00.00        817     6    55 0.109 des        1
##  6 Falko 20000 CHI   2;00.00        817     6    55 0.109 die        5
##  7 Falko 20614 CHI   2;06.14        806     6   290 0.021 das      149
##  8 Falko 20614 CHI   2;06.14        806     6   290 0.021 dem        1
##  9 Falko 20614 CHI   2;06.14        806     6   290 0.021 den       17
## 10 Falko 20614 CHI   2;06.14        806     6   290 0.021 der       42
## # ... with 44 more rows

szagun %>% 
  filter(id == "Lisa",
         code == "CHI") %>% 
  group_by(age) %>% 
  pivot_longer(das:die, names_to = "d_wort", values_to = "freq") %>% 
  filter(types >= 5)

## # A tibble: 66 x 10
## # Groups:   age [11]
##    id    age1  code  age     utterances types token   ttr d_wort  freq
##    <chr> <chr> <chr> <chr>        <dbl> <dbl> <dbl> <dbl> <chr>  <dbl>
##  1 Lisa  20400 CHI   2;04.00        693     5   140 0.036 das       94
##  2 Lisa  20400 CHI   2;04.00        693     5   140 0.036 dem        0
##  3 Lisa  20400 CHI   2;04.00        693     5   140 0.036 den       20
##  4 Lisa  20400 CHI   2;04.00        693     5   140 0.036 der        4
##  5 Lisa  20400 CHI   2;04.00        693     5   140 0.036 des        6
##  6 Lisa  20400 CHI   2;04.00        693     5   140 0.036 die       16
##  7 Lisa  20507 CHI   2;05.07        735     6   126 0.048 das       46
##  8 Lisa  20507 CHI   2;05.07        735     6   126 0.048 dem        1
##  9 Lisa  20507 CHI   2;05.07        735     6   126 0.048 den       35
## 10 Lisa  20507 CHI   2;05.07        735     6   126 0.048 der        9
## # ... with 56 more rows

szagun %>% 
  filter(id == "Lisa",
         code == "CHI") %>% 
  group_by(age) %>% 
  pivot_longer(das:die, names_to = "d_wort", values_to = "freq") %>% 
  filter(types == 6)

## # A tibble: 30 x 10
## # Groups:   age [5]
##    id    age1  code  age     utterances types token   ttr d_wort  freq
##    <chr> <chr> <chr> <chr>        <dbl> <dbl> <dbl> <dbl> <chr>  <dbl>
##  1 Lisa  20507 CHI   2;05.07        735     6   126 0.048 das       46
##  2 Lisa  20507 CHI   2;05.07        735     6   126 0.048 dem        1
##  3 Lisa  20507 CHI   2;05.07        735     6   126 0.048 den       35
##  4 Lisa  20507 CHI   2;05.07        735     6   126 0.048 der        9
##  5 Lisa  20507 CHI   2;05.07        735     6   126 0.048 des        2
##  6 Lisa  20507 CHI   2;05.07        735     6   126 0.048 die       33
##  7 Lisa  30000 CHI   3;00.00        602     6   197 0.03  das       94
##  8 Lisa  30000 CHI   3;00.00        602     6   197 0.03  dem        2
##  9 Lisa  30000 CHI   3;00.00        602     6   197 0.03  den       12
## 10 Lisa  30000 CHI   3;00.00        602     6   197 0.03  der       13
## # ... with 20 more rows

szagun %>% 
  filter(id == "Soeren",
         code == "CHI") %>% 
  group_by(age) %>% 
  pivot_longer(das:die, names_to = "d_wort", values_to = "freq") %>% 
  filter(types >= 5)

## # A tibble: 72 x 10
## # Groups:   age [12]
##    id     age1  code  age     utterances types token   ttr d_wort  freq
##    <chr>  <chr> <chr> <chr>        <dbl> <dbl> <dbl> <dbl> <chr>  <dbl>
##  1 Soeren 10800 CHI   1;08.00        753     5    84  0.06 das       42
##  2 Soeren 10800 CHI   1;08.00        753     5    84  0.06 dem        1
##  3 Soeren 10800 CHI   1;08.00        753     5    84  0.06 den       35
##  4 Soeren 10800 CHI   1;08.00        753     5    84  0.06 der        3
##  5 Soeren 10800 CHI   1;08.00        753     5    84  0.06 des        0
##  6 Soeren 10800 CHI   1;08.00        753     5    84  0.06 die        3
##  7 Soeren 20000 CHI   2;00.00        679     5   101  0.05 das       60
##  8 Soeren 20000 CHI   2;00.00        679     5   101  0.05 dem        1
##  9 Soeren 20000 CHI   2;00.00        679     5   101  0.05 den       14
## 10 Soeren 20000 CHI   2;00.00        679     5   101  0.05 der       13
## # ... with 62 more rows
…
